{
  "blogs": [
    {
      "title": "Doloremque velit sapien labore eius itna",
      "fullwidth": true,
      "url": "#",
      "author": "Admin",
      "date": "20 Nov. 2018",
      "comments": "05 Comments",
      "image": "/assets/img/blog/1.png",
      "content": "Why I say old chap that is, spiffing jolly good a load of old tosh spend a penny tosser arse over tit, excuse my French owt to do with me up the kyver matie boy at public school. Cuppa argy-bargy young delinquent spend a penny James Bond skive off lurgy, tosser fanny around dropped a Why I say old chap that is, spiffing jolly good a load of old tosh spend a penny tosser arse over tit, excuse my French owt to do with me up the kyver matie boy at public school."
    },
    {
      "title": "Corporate Workflow make a diffrence",
      "url": "#",
      "author": "Admin",
      "date": "20 Nov. 2018",
      "comments": "05 Comments",
      "image": "/assets/img/blog/2.png",
      "content": "Why I say old chap that is, spiffing jolly good a load of old tosh spend a penny tosser arse over tit, excuse my French owt to do with me up the kyver matie boy at public school. Cuppa argy-bargy young delinquent spend a penny James Bond skive off lurgy, tosser fanny around dropped a Why I say old chap that is, spiffing jolly good a load of old tosh spend a penny tosser arse over tit, excuse my French owt to do with me up the kyver matie boy at public school."
    },
    {
      "title": "Better software promotes sales & profits",
      "url": "#",
      "author": "Admin",
      "date": "20 Nov. 2018",
      "comments": "05 Comments",
      "image": "/assets/img/blog/3.png",
      "content": "Why I say old chap that is, spiffing jolly good a load of old tosh spend a penny tosser arse over tit, excuse my French owt to do with me up the kyver matie boy at public school. Cuppa argy-bargy young delinquent spend a penny James Bond skive off lurgy, tosser fanny around dropped a Why I say old chap that is, spiffing jolly good a load of old tosh spend a penny tosser arse over tit, excuse my French owt to do with me up the kyver matie boy at public school."
    },
    {
      "title": "Better App promotes sales & profits",
      "fullwidth": true,
      "url": "#",
      "author": "Admin",
      "date": "20 Nov. 2018",
      "category": "Apps UI",
      "comments": "05 Comments",
      "image": "/assets/img/blog/3.png",
      "content": "Why I say old chap that is, spiffing jolly good a load of old tosh spend a penny tosser arse over tit, excuse my French owt to do with me up the kyver matie boy at public school. Cuppa argy-bargy young delinquent spend a penny James Bond skive off lurgy, tosser fanny around dropped a Why I say old chap that is, spiffing jolly good a load of old tosh spend a penny tosser arse over tit, excuse my French owt to do with me up the kyver matie boy at public school."
    },
    {
      "title": "Audioclip velit sapien labore eius lopren itna",
      "url": "#",
      "author": "Admin",
      "date": "20 Nov. 2018",
      "category": "AppFeatures",
      "comments": "05 Comments",
      "image": "/assets/img/blog/3.png",
      "content": "Why I say old chap that is, spiffing jolly good a load of old tosh spend a penny tosser arse over tit, excuse my French owt to do with me up the kyver matie boy at public school. Cuppa argy-bargy young delinquent spend a penny James Bond skive off lurgy, tosser fanny around dropped a Why I say old chap that is, spiffing jolly good a load of old tosh spend a penny tosser arse over tit, excuse my French owt to do with me up the kyver matie boy at public school."
    },
    {
      "title": "Better App promotes sales & profits",
      "url": "#",
      "author": "Admin",
      "date": "20 Nov. 2018",
      "category": "AppFeatures",
      "comments": "05 Comments",
      "image": "/assets/img/blog/3.png",
      "content": "Why I say old chap that is, spiffing jolly good a load of old tosh spend a penny tosser arse over tit, excuse my French owt to do with me up the kyver matie boy at public school. Cuppa argy-bargy young delinquent spend a penny James Bond skive off lurgy, tosser fanny around dropped a Why I say old chap that is, spiffing jolly good a load of old tosh spend a penny tosser arse over tit, excuse my French owt to do with me up the kyver matie boy at public school."
    }
  ],
  "pagetitle": {
    "blogtitle": "Blog",
    "blog2coltitle": "Blog 2 column",
    "blog3coltitle": "Blog 3 column",
    "blogfullleftsidetitle": "Blog Full Left Sidebar",
    "blogfullrightsidetitle": "Blog Full Right Sidebar"
  }

}